<?xml version="1.0" encoding="UTF-8" standalone="no"?>
<svg width="21px" height="12px" viewBox="0 0 21 12" version="1.1" xmlns="http://www.w3.org/2000/svg" xmlns:xlink="http://www.w3.org/1999/xlink" xmlns:sketch="http://www.bohemiancoding.com/sketch/ns">
    <!-- Generator: Sketch 3.3.3 (12072) - http://www.bohemiancoding.com/sketch -->
    <title>arrow_down</title>
    <desc>Created with Sketch.</desc>
    <defs></defs>
    <g id="design" stroke="none" stroke-width="1" fill="none" fill-rule="evenodd" sketch:type="MSPage">
        <g id="013-tv_smartphone_menu" sketch:type="MSArtboardGroup" transform="translate(-270.000000, -107.000000)" stroke-linecap="round" stroke="#4A4A4A" stroke-width="2">
            <g id="arrow_down" sketch:type="MSLayerGroup" transform="translate(271.000000, 108.000000)">
                <path d="M10,10 L19,1" id="Stroke-10" sketch:type="MSShapeGroup"></path>
                <path d="M9.5,9.5 L0.5,0.5" id="Stroke-12" sketch:type="MSShapeGroup"></path>
            </g>
        </g>
    </g>
</svg>