<?xml version="1.0" encoding="UTF-8" standalone="no"?>
<svg width="23px" height="13px" viewBox="0 0 23 13" version="1.1" xmlns="http://www.w3.org/2000/svg" xmlns:xlink="http://www.w3.org/1999/xlink" xmlns:sketch="http://www.bohemiancoding.com/sketch/ns">
    <!-- Generator: Sketch 3.3.3 (12072) - http://www.bohemiancoding.com/sketch -->
    <title>arrow_down-white</title>
    <desc>Created with Sketch.</desc>
    <defs></defs>
    <g id="design" stroke="none" stroke-width="1" fill="none" fill-rule="evenodd" sketch:type="MSPage">
        <g id="030-tv_desktop_pricing" sketch:type="MSArtboardGroup" transform="translate(-1059.000000, -3622.000000)" stroke="#FFFFFF" stroke-width="2">
            <g id="Teaser-w/-Image" sketch:type="MSLayerGroup" transform="translate(-1.000000, 3343.000000)">
                <g id="Form" transform="translate(736.000000, 261.000000)" sketch:type="MSShapeGroup">
                    <path d="M325,18.7477484 L335.504503,29.2522516 L346,18.7567549" id="arrow_down-white" transform="translate(335.500000, 24.000000) scale(-1, 1) translate(-335.500000, -24.000000) "></path>
                </g>
            </g>
        </g>
    </g>
</svg>